{
    "oznake": [{
        "meridijan": 45.818034,
        "paralela": 15.973752,
        "naslov": "Staroslavenski institut",
        "sadrzaj": "<div id='content'><img src='slike/staroslavenski-dvoriste.png' class='infoslika'/><br>Neki tekst</div>"

    }, {
        "meridijan": 43.508937, 
        "paralela": 16.440745,
        "naslov": "Muzej grada Splita",
        "sadrzaj": "<div id='content'><img src='slike/muzej-split.jpg' class='infoslika'/><br>Neki tekst</div>"

    }]
}